…
## What is mean total number of steps taken per day?

1. Total number of steps taken per day


```r
activity %>%
    group_by(date) %>%
    summarize(tot_steps = sum(steps, na.rm = TRUE))
```

```
## # A tibble: 61 x 2
##    date       tot_steps
##    <date>         <dbl>
##  1 2012-10-01         0
##  2 2012-10-02       126
##  3 2012-10-03     11352
##  4 2012-10-04     12116
##  5 2012-10-05     13294
##  6 2012-10-06     15420
##  7 2012-10-07     11015
##  8 2012-10-08         0
##  9 2012-10-09     12811
## 10 2012-10-10      9900
## # … with 51 more rows
```
…
3. Mean and median of total number of steps taken per day


```r
activity %>%
    group_by(date) %>%
    summarize(mean = mean(steps, na.rm = TRUE),
              median = median(steps, na.rm = TRUE))
```

```
## # A tibble: 61 x 3
##    date          mean median
##    <date>       <dbl>  <dbl>
##  1 2012-10-01 NaN         NA
##  2 2012-10-02   0.438      0
##  3 2012-10-03  39.4        0
##  4 2012-10-04  42.1        0
##  5 2012-10-05  46.2        0
##  6 2012-10-06  53.5        0
##  7 2012-10-07  38.2        0
##  8 2012-10-08 NaN         NA
##  9 2012-10-09  44.5        0
## 10 2012-10-10  34.4        0
## # … with 51 more rows
```
…
```r
activity %>%
    group_by(date) %>%
    summarize(n())
```

```
## # A tibble: 61 x 2
##    date       `n()`
##    <date>     <int>
##  1 2012-10-01   288
##  2 2012-10-02   288
##  3 2012-10-03   288
##  4 2012-10-04   288
##  5 2012-10-05   288
##  6 2012-10-06   288
##  7 2012-10-07   288
##  8 2012-10-08   288
##  9 2012-10-09   288
## 10 2012-10-10   288
## # … with 51 more rows
```
…
```r
act_imp %>%
    group_by(date) %>%
    summarize(mean = mean(steps),
              median = median(steps))
```

```
## # A tibble: 61 x 3
##    date         mean median
##    <date>      <dbl>  <dbl>
##  1 2012-10-01  3.96       0
##  2 2012-10-02  0.438      0
##  3 2012-10-03 39.4        0
##  4 2012-10-04 42.1        0
##  5 2012-10-05 46.2        0
##  6 2012-10-06 53.5        0
##  7 2012-10-07 38.2        0
##  8 2012-10-08  3.96       0
##  9 2012-10-09 44.5        0
## 10 2012-10-10 34.4        0
## # … with 51 more rows
```
…
1. Create new factor variable that designates whether an observation is taken on a weekend or weekday


```r
act_imp_day <- 
    act_imp %>%
        mutate(day = wday(date),
               class = if_else(day == 7 | day == 1, "weekend", "weekday"),
               class = factor(class))

act_imp_day
```

```
## # A tibble: 17,568 x 5
## # Groups:   interval [288]
##    steps date       interval   day class  
##    <dbl> <date>        <dbl> <dbl> <fct>  
##  1     0 2012-10-01        0     2 weekday
##  2     0 2012-10-01        5     2 weekday
##  3     0 2012-10-01       10     2 weekday
##  4     0 2012-10-01       15     2 weekday
##  5     0 2012-10-01       20     2 weekday
##  6     0 2012-10-01       25     2 weekday
##  7     0 2012-10-01       30     2 weekday
##  8     0 2012-10-01       35     2 weekday
##  9     0 2012-10-01       40     2 weekday
## 10     0 2012-10-01       45     2 weekday
## # … with 17,558 more rows
```
…
